<svg width="28" height="19" viewBox="0 0 28 19" fill="none" xmlns="http://www.w3.org/2000/svg">
<path d="M27.096 5.90801C26.9734 5.73077 26.8096 5.5859 26.6187 5.48582C26.4278 5.38573 26.2155 5.33341 26 5.33334H7.77735L6.23869 1.64001C6.03694 1.15363 5.69531 0.738124 5.25712 0.446154C4.81893 0.154184 4.30391 -0.00109472 3.77735 5.80965e-06H0.666687V2.66667H3.77735L10.1027 17.8467C10.204 18.0895 10.3749 18.297 10.5939 18.4429C10.8129 18.5888 11.0702 18.6667 11.3334 18.6667H22C22.556 18.6667 23.0534 18.3213 23.2494 17.8027L27.2494 7.13601C27.325 6.93417 27.3505 6.71701 27.3238 6.50314C27.2971 6.28927 27.2189 6.08506 27.096 5.90801Z" fill="white"/>
</svg>
